field_call_number,filename
collection_1029,CD00642.jpg
collection_1030,CD09169.jpg
collection_9119,CA00373.jpg
collection_9121,NOART.jpg
collection_18080,CD20214_A.jpg
collection_18296,CD20232.JPG
collection_1031,CD07379.jpg
collection_7259,CD19459.jpg
collection_10677,VF00234.jpg
collection_10858,VF00255.jpg
collection_12646,VF00302.jpg
collection_1032,CD14749.jpg
collection_17002,NOART.jpg
collection_9124,CA01496.jpg
collection_9124,CA01496.jpg
collection_14180,VF00459.jpg
collection_14266,VF00469.jpg
collection_14299,VF00473.jpg
collection_14327,VF00477.jpg
collection_18507,NOART.jpg
collection_1033,NOART.jpg
collection_7227,CD19385.jpg
collection_17749,CD20174_A.jpg
collection_1036,CD18367_A.JPG
collection_1037,CD17632.jpg
collection_15054,NOART.jpg
collection_1038,CD13920.jpg
collection_1039,CD14927.jpg
collection_1040,RF00002.jpg
collection_1041,RF00003.jpg
collection_1396,CD13874.jpg
collection_1449,CD06198.jpg
collection_7337,VF00152.jpg
collection_7338,VF00153.jpg
collection_7339,VF00154.jpg
collection_7340,VF00155.jpg
collection_7341,VF00156.jpg
collection_7343,VF00158.jpg
collection_9125,VF00186.jpg
collection_9131,VF00187.jpg
collection_9317,VF00181.jpg
collection_9319,VF00182.jpg
collection_9321,VF00183.jpg
collection_9323,VF00184.jpg
collection_9325,VF00185.jpg
collection_1043,CD16858.jpg
collection_1257,CD16869.jpg
collection_9133,CD19478.jpg
collection_1044,CD13008.jpg
collection_7276,VF00085.jpg
collection_17686,CD20172_A.JPG
collection_7229,CD19387.jpg
collection_7277,VF00086.jpg
collection_7278,VF00087.jpg
collection_9136,CD19481.jpg
collection_9139,CA00946.jpg
collection_9141,CA01051.jpg
collection_13454,VF00377.jpg
collection_12315,NOART.jpg
collection_12352,NOART.jpg
collection_1045,CD14453.jpg
collection_1046,CD15673.jpg
collection_15062,VF00560.jpg
collection_15068,VF00561.jpg
collection_17005,VF00728.jpg
collection_15483,VF00585.jpg
collection_16235,VF00673.jpg
collection_16240,VF00681.jpg
collection_16246,VF00695.jpg
collection_7187,CD14122.jpg
collection_1047,CD18698.jpg
collection_10682,VF00235.jpg
collection_1048,CD16840.jpg
collection_1049,VF00040.jpg
collection_1050,NOART.jpg
collection_12788,CD20028.jpg
collection_17349,CD20144.jpeg
collection_1051,NOART.jpg
collection_1053,NOART.jpg
collection_7279,VF00088.jpg
collection_7280,VF00089.jpg
collection_7281,VF00090.jpg
collection_11515,VF00295.jpg
collection_9144,VF00188.jpg
collection_18192,AA08215.JPG
collection_11218,VF00261.jpg
collection_12827,VF00315.jpg
collection_13663,VF00397.jpg
collection_1054,CD02968.jpg
collection_7230,CD19388.jpg
collection_1055,CD15911.jpg
collection_1212,CD16245.jpg
collection_16256,VF00714.jpg
collection_7211,NOART.jpg
collection_14874,NOART.jpg
collection_7234,CD19398.jpg
collection_12929,VF00326.jpg
collection_17640,CD20166_A.JPG
collection_1056,CD16246.jpg
collection_1057,CD01329.jpg
collection_1058,NOART.jpg
collection_11452,VF00286.jpg
collection_11479,VF00289.jpg
collection_12707,VF00308.jpg
collection_14890,NOART.jpg
collection_14894,NOART.jpg
collection_1059,CD15455.jpg
collection_7282,VF00091.jpg
collection_12660,VF00303.jpg
collection_14573,VF00489.jpg
collection_18551,VF00770.jpg
collection_1060,NOART.jpg
collection_1061,NOART.jpg
collection_1062,NOART.jpg
collection_1495,CD15067.jpg
collection_6915,NOART.jpg
collection_9202,CD19476.jpg
collection_1063,NOART.jpg
collection_1064,NOART.jpg
collection_1065,NOART.jpg
collection_1066,NOART.jpg
collection_1067,NOART.jpg
collection_1068,CD04474.jpg
collection_1069,NOART.jpg
collection_1070,NOART.jpg
collection_1071,NOART.jpg
collection_1507,CD10000.jpg
collection_1183,CD15697.jpg
collection_1184,CD14034.jpg
collection_1187,CD17207.jpg
collection_1072,CD10197.jpg
collection_7283,VF00092.jpg
collection_7316,VF00128.jpg
collection_7317,VF00129.jpg
collection_10563,VF00199.jpg
collection_17587,CD20163_A.JPG
collection_1073,CD14358.jpg
collection_15489,VF00586.jpg
collection_1074,NOART.jpg
collection_7273,VF00082.jpg
collection_14711,VF00502.jpg
collection_14729,VF00506.jpg
collection_14706,VF00501.jpg
collection_14714,VF00503.jpg
collection_14722,VF00505.jpg
collection_14732,VF00507.jpg
collection_14745,VF00509.jpg
collection_14773,VF00513.jpg
collection_14779,VF00514.jpg
collection_14805,VF00520.jpg
collection_14833,VF00523.jpg
collection_14837,VF00524.jpg
collection_14853,VF00527.jpg
collection_14862,VF00529.jpg
collection_14866,VF00530.jpg
collection_18243,CD20229_A.jpg
collection_17017,VF00729.jpg
collection_7223,CD19381.jpg
collection_7224,CD19382.jpg
collection_7272,VF00081.jpg
collection_14073,VF00446.jpg
collection_1076,CD13491.jpg
collection_1075,NOART.jpg
collection_14582,VF00490.jpg
collection_1077,CD15672.jpg
collection_15751,VF00614.jpg
collection_15075,VF00562.jpg
collection_9280,NOART.jpg
collection_1078,NOART.jpg
collection_1079,CD13955.jpg
collection_9147,VF00197.jpg
collection_18258,CD20230_A.jpg
collection_17029,VF00730.jpg
collection_1080,CD05190.jpg
collection_9149,CA00001.jpg
collection_17467,AA007274.jpg
collection_12561,VF00266.jpg
collection_16740,NOART.jpg
collection_17041,VF00731.jpg
collection_1082,NOART.jpg
collection_10689,VF00236.jpg
collection_14336,VF00479.jpg
collection_13080,VF00342.jpg
collection_15758,VF00615.jpg
collection_13675,VF00398.jpg
collection_17811,CD20177_A.jpg
collection_7195,CD17721.jpg
collection_13974,NOART.jpg
collection_13977,NOART.jpg
collection_1084,RF00020.jpg
collection_1085,CD14064.jpg
collection_1086,NOART.jpg
collection_1087,NOART.jpg
collection_15084,VF00563.jpg
collection_13072,VF00341.jpg
collection_16263,VF00700.jpg
collection_15116,VF00565.jpg
collection_7284,VF00093.jpg
collection_7285,VF00094.jpg
collection_1088,CD19318.jpg
collection_11326,VF00267.jpg
collection_17972,CD20204_A.jpg
collection_11901,CD14354.jpg
collection_11918,CD14355.jpg
collection_11935,CD14360.jpg
collection_12515,VF00229.jpg
collection_12519,VF00230.jpg
collection_12531,VF00231.jpg
collection_12554,VF00232.jpg
collection_14148,VF00456.jpg
collection_16276,VF00718.jpg
collection_1089,NOART.jpg
collection_1090,CD15357.jpg
collection_1090,CD15357.jpg
collection_7253,CD19421.jpg
collection_11035,CD19748.jpg
collection_16293,VF00717.jpg
collection_15764,NOART.jpg
collection_15766,VF00617.jpg
collection_17966,CD20203_A.jpg
collection_13429,VF00373.jpg
collection_13447,VF00376.jpg
collection_13470,VF00378.jpg
collection_16297,VF00697.jpg
collection_14897,NOART.jpg
collection_1091,CD17024.jpg
collection_1092,NOART.jpg
collection_14436,CD20132.jpg
collection_1093,CD19374.jpg
collection_7204,CD19365.jpg
collection_7207,CD19375.jpg
collection_7212,7I00638.JPG
collection_7213,NOART.jpg
collection_7214,NOART.jpg
collection_7215,NOART.jpg
collection_1094,CD7969_A.JPG
collection_7204,CD19365.jpg
collection_12312,NOART.jpg
collection_1095,CD00643.jpg
collection_9151,NOART.jpg
collection_9153,CA01504.jpg
collection_7286,VF00095.jpg
collection_15092,VF00564.jpg
collection_15148,VF00566.jpg
collection_15159,VF00567.jpg
collection_15170,VF00568.jpg
collection_15178,VF00569.jpg
collection_15185,VF00570.jpg
collection_15199,VF00571.jpg
collection_1096,AA03975.jpg
collection_1097,AA00449.jpg
collection_1098,NOART.jpg
collection_1099,NOART.jpg
collection_7208,NOART.jpg
collection_7328,NOART.jpg
collection_10548,NOART.jpg
collection_17893,CD20189_A.jpg
collection_17056,VF00732.jpg
collection_6917,CD20187_A.jpg
collection_1101,CD14944.jpg
collection_17924,CD20199_A.jpg
collection_1104,NOART.jpg
collection_1105,NOART.jpg
collection_1106,CD12212.jpg
collection_1107,NOART.jpg
collection_1108,NOART.jpg
collection_1109,CD07381.jpg
collection_1110,CD15471.jpg
collection_1111,CD17780.jpg
collection_1112,CD18063.jpg
collection_1152,CD14225.jpg
collection_7203,CD19338.jpg
collection_14395,CD20128.jpg
collection_11186,VF00257.jpg
collection_7241,CD19409.jpg
collection_1113,NOART.jpg
collection_1495,CD15067.jpg
collection_1114,NOART.jpg
collection_14903,NOART.jpg
collection_1115,CD11058.jpg
collection_1116,CD18699.jpg
collection_7287,VF00096.jpg
collection_16776,VF00767.jpg
collection_14284,VF00472.jpg
collection_1117,CD17363.jpg
collection_1118,CD01587.jpg
collection_1119,CD16450.jpg
collection_9155,CD19475.jpg
collection_18009,CD20206_A.jpg
collection_18130,NOART.jpg
collection_11180,VF00256.jpg
collection_11193,VF00258.jpg
collection_11198,VF00259.jpg
collection_10695,VF00237.jpg
collection_16302,VF00688.jpg
collection_16308,NOART.jpg
collection_12859,VF00317.jpg
collection_12905,VF00323.jpg
collection_1120,CD15869.jpg
collection_1121,CD17056.jpg
collection_12845,VF00316.jpg
collection_12884,VF00320.jpg
collection_1122,NOART.jpg
collection_1123,CD15785.jpg
collection_13583,VF00387.jpg
collection_13601,VF00388.jpg
collection_12669,VF00304.jpg
collection_13687,VF00399.jpg
collection_11069,CD19752.jpg
collection_11152,CD19759.jpg
collection_11165,CD19760.jpg
collection_17420,CA01501_A.JPG
collection_17793,CA1056_.jpg
collection_17936,CD20200_A.jpg
collection_11069,CD19752.jpg
collection_11023,CD19747.jpg
collection_13543,VF00383.jpg
collection_10703,VF00238.jpg
collection_15502,VF00587.jpg
collection_15509,VF00588.jpg
collection_15515,VF00589.jpg
collection_15523,VF00590.jpg
collection_15532,VF00591.jpg
collection_15552,NOART.jpg
collection_15558,VF00593.jpg
collection_15569,VF00594.jpg
collection_15578,VF00595.jpg
collection_15585,VF00596.jpg
collection_15594,VF00597.jpg
collection_15772,VF00618.jpg
collection_14128,VF00453.jpg
collection_9158,CA01196.jpg
collection_1124,CD13392.jpg
collection_1125,CD13393.jpg
collection_11237,VF00263.jpg
collection_12629,CD20009.jpg
collection_12622,CD20008.jpg
collection_11555,VF00301.jpg
collection_13320,VF00362.jpg
collection_1126,CD16041.jpg
collection_12293,NOART.jpg
collection_7246,CD19414.jpg
collection_14913,NOART.jpg
collection_14915,NOART.jpg
collection_1128,NOART.jpg
collection_1129,CD15677.jpg
collection_7190,CD15180.jpg
collection_1130,NOART.jpg
collection_1131,NOART.jpg
collection_1132,NOART.jpg
collection_7288,VF00097.jpg
collection_9160,CD19483.jpg
collection_1133,NOART.jpg
collection_1134,NOART.jpg
collection_1135,NOART.jpg
collection_1136,NOART.jpg
collection_1137,CD16587.jpg
collection_1138,NOART.jpg
collection_9162,NOART.jpg
collection_9165,CA00224.jpg
collection_16314,NOART.jpg
collection_16319,VF00708.jpg
collection_16333,VF00715.jpg
collection_18301,CD20233.jpg
collection_13060,VF00340.jpg
collection_1139,NOART.jpg
collection_7290,VF00099.jpg
collection_16346,VF00666.jpg
collection_15784,VF00619.jpg
collection_15794,VF00620.jpg
collection_16362,VF00672.jpg
collection_16366,VF00671.jpg
collection_12415,NOART.jpg
collection_1140,CD14344.jpg
collection_15205,VF00572.jpg
collection_1141,CD19353.jpg
collection_11118,CD19757.jpg
collection_11136,CD19758.jpg
collection_1142,CD15492.jpg
collection_16784,NOART.jpg
collection_7232,CD19391.jpg
collection_12399,VF00100.jpg
collection_7249,NOART.jpg
collection_18437,CA01534A.jpg
collection_1143,NOART.jpg
collection_16377,VF00674.jpg
collection_16384,VF00678.jpg
collection_1144,CD13654.jpg
collection_1145,NOART.jpg
collection_13310,VF00361.jpg
collection_14919,NOART.jpg
collection_18323,CD20235.jpg
collection_1146,NOART.jpg
collection_1147,NOART.jpg
collection_1148,CD15676_A.jpg
collection_1149,CD14351.jpg
collection_1150,CD15671.jpg
collection_13631,VF00393.jpg
collection_13041,VF00338.jpg
collection_13057,VF00339.jpg
collection_1151,CD18603.jpg
collection_1152,CD14225.jpg
collection_7183,CD13436.jpg
collection_15042,CD20137.jpg
collection_1153,CD14454.jpg
collection_9168,CA00962.jpg
collection_7255,CD19424.jpg
collection_7319,VF00131.jpg
collection_7320,VF00132.jpg
collection_7321,VF00133.jpg
collection_1154,CD15213.jpg
collection_1155,CD14936.jpg
collection_1156,CD15595.jpg
collection_10711,VF00239.jpg
collection_10624,VF00208.jpg
collection_10635,VF00209.jpg
collection_10950,VF00219.jpg
collection_1157,CD14340.jpg
collection_7238,CD19406.jpg
collection_7217,NOART.jpg
collection_1158,NOART.jpg
collection_13181,CD20103.jpg
collection_12721,VF00313.jpg
collection_12918,VF00324.jpg
collection_13641,VF00394.jpg
collection_1159,NOART.jpg
collection_1160,CD18136.jpg
collection_1161,CD16697.jpg
collection_1162,CD18705.jpg
collection_1163,CD15137.jpg
collection_17070,NOART.jpg
collection_9171,CA00398.jpg
collection_17073,VF00734.jpg
collection_15225,VF00574.jpg
collection_18404,CD20241.jpg
collection_18421,CD20242.jpg
collection_18458,CD20243.jpg
collection_17085,VF00735.jpg
collection_11286,CD19763.jpg
collection_15797,VF00621.jpg
collection_18509,VF00763.jpg
collection_1164,CD15787.jpg
collection_1166,CD12092.jpg
collection_1167,NOART.jpg
collection_1168,CD17560.jpg
collection_16390,VF00670.jpg
collection_18027,CD20209_A.jpg
collection_13552,VF00384.jpg
collection_14924,NOART.jpg
collection_14932,NOART.jpg
collection_1169,CD19276.jpg
collection_1170,CD13983.jpg
collection_7247,CD19415.jpg
collection_7334,NOART.jpg
collection_12777,CD20027.jpg
collection_1171,NOART.jpg
collection_13893,VF00422.jpg
collection_1172,NOART.jpg
collection_1173,NOART.jpg
collection_17512,CD20157_A.JPG
collection_7206,CD19373.jpg
collection_1174,NOART.jpg
collection_13257,NOART.jpg
collection_1175,NOART.jpg
collection_9174,NOART.jpg
collection_15603,VF00598.jpg
collection_15609,VF00599.jpg
collection_7291,VF00101.jpg
collection_15807,VF00622.jpg
collection_15820,VF00623.jpg
collection_15834,VF00624.jpg
collection_16396,VF00669.jpg
collection_1176,CD11720.jpg
collection_1177,NOART.jpg
collection_15248,NOART.jpg
collection_15743,VF00613.jpg
collection_16416,VF00706.jpg
collection_16428,VF00711.jpg
collection_1178,NOART.jpg
collection_15846,NOART.jpg
collection_11956,NOART.jpg
collection_17368,NOART.jpg
collection_7335,VF00150.jpg
collection_13830,VF00417.jpg
collection_13870,VF00419.jpg
collection_13884,VF00421.jpg
collection_13904,VF00424.jpg
collection_13912,VF00425.jpg
collection_13919,VF00426.jpg
collection_13925,VF00427.jpg
collection_13930,VF00428.jpg
collection_13941,VF00429.jpg
collection_13948,VF00430.jpg
collection_13957,VF00431.jpg
collection_13959,VF00431.jpg
collection_13996,VF00438.jpg
collection_14044,VF00442.jpg
collection_1179,NOART.jpg
collection_12571,VF00268.jpg
collection_12578,VF00281.jpg
collection_12582,VF00282.jpg
collection_12585,VF00283.jpg
collection_7292,VF00102.jpg
collection_7293,VF00103.jpg
collection_7294,VF00104.jpg
collection_9176,VF00194.jpg
collection_10973,VF00222.jpg
collection_11225,VF00262.jpg
collection_16434,7I00644.jpg
collection_17095,VF00736.jpg
collection_1180,NOART.jpg
collection_1181,NOART.jpg
collection_1182,CD07228.jpg
collection_14469,CD20135.jpg
collection_12980,VF00328.jpg
collection_18608,VF00777.jpg
collection_1183,CD15697.jpg
collection_1184,CD14034.jpg
collection_1185,CD14035.jpg
collection_1186,CD01285.jpg
collection_1187,CD17207.jpg
collection_1188,CD14033.jpg
collection_9179,CA00881.jpg
collection_1236,CD17544.jpg
collection_1189,NOART.jpg
collection_1190,CD13627.jpg
collection_1191,NOART.jpg
collection_1192,CD05954.jpg
collection_9181,CA01497.jpg
collection_17765,CA01527_A.jpg
collection_9184,NOART.jpg
collection_1193,NOART.jpg
collection_1194,NOART.jpg
collection_1195,CD18375.jpg
collection_12813,CD20036.jpg
collection_7236,CD19402.jpg
collection_18389,CD20240.jpg
collection_13700,VF00400.jpg
collection_14058,VF00444.jpg
collection_10723,VF00240.jpg
collection_13374,VF00366.jpg
collection_13706,VF00401.jpg
collection_11090,CD19754.jpg
collection_11110,CD19756.jpg
collection_14858,VF00528.jpg
collection_13284,VF00359.jpg
collection_13296,VF00360.jpg
collection_10727,VF00241.jpg
collection_13716,VF00402.jpg
collection_17627,CD20165_A.jpg
collection_10610,VF00206.jpg
collection_17107,VF00737.jpg
collection_11002,CD19745.jpg
collection_9187,NOART.jpg
collection_17119,VF00738.jpg
collection_1196,NOART.jpg
collection_1197,CD14343.jpg
collection_17131,VF00739.jpg
collection_1198,CD13081.jpg
collection_7254,CD19422.jpg
collection_13721,VF00403.jpg
collection_1199,CD19364.jpg
collection_12926,VF00325.jpg
collection_1200,NOART.jpg
collection_1201,CD17579.jpg
collection_1202,CD19076.JPG
collection_7198,CD19075.jpg
collection_1203,CD16081.jpg
collection_13497,NOART.jpg
collection_13092,VF00345.jpg
collection_17613,CD18770.JPG
collection_18093,CD20216_A.jpg
collection_1204,NOART.jpg
collection_15424,CD20139.jpg
collection_1205,NOART.jpg
collection_7274,VF00083.jpg
collection_7275,CD20180_AA.jpg
collection_7295,VF00105.jpg
collection_9190,CA01159.jpg
collection_1206,CD19319.jpg
collection_17428,CD20152_A.JPG
collection_7264,CD19468.jpg
collection_12938,VF00327.jpg
collection_16807,NOART.jpg
collection_11668,CA00393.jpg
collection_17777,CA00218_A.jpg
collection_1207,CD16692_A.jpg
collection_7296,VF00106.jpg
collection_18273,7100632.jpg
collection_7265,CD19469.jpg
collection_7266,CD19470.jpg
collection_13518,VF00381.jpg
collection_13097,VF00346.jpg
collection_13115,VF00347.jpg
collection_15284,VF00577.jpg
collection_1236,CD17544.jpg
collection_1208,CD14342.jpg
collection_1209,NOART.jpg
collection_1210,CD01014.jpg
collection_7267,CD19471.jpg
collection_1211,NOART.jpg
collection_1212,CD16245.jpg
collection_1136,NOART.jpg
collection_9193,NOART.jpg
collection_13442,VF00375.jpg
collection_1213,CD15593.jpg
collection_12207,NOART.jpg
collection_12245,NOART.jpg
collection_12247,NOART.jpg
collection_12249,NOART.jpg
collection_12263,NOART.jpg
collection_12272,NOART.jpg
collection_12277,NOART.jpg
collection_12299,NOART.jpg
collection_12301,NOART.jpg
collection_12317,NOART.jpg
collection_12324,NOART.jpg
collection_12333,NOART.jpg
collection_12343,NOART.jpg
collection_12347,NOART.jpg
collection_12354,NOART.jpg
collection_12372,NOART.jpg
collection_12374,NOART.jpg
collection_12376,NOART.jpg
collection_12387,NOART.jpg
collection_12389,NOART.jpg
collection_12391,NOART.jpg
collection_12712,NOART.jpg
collection_12714,NOART.jpg
collection_12716,NOART.jpg
collection_12718,NOART.jpg
collection_1214,NOART.jpg
collection_1215,CD13053.jpg
collection_1469,CD16078.jpg
collection_1216,CD15345.jpg
collection_1217,CD13937.jpg
collection_17698,CD20173_A.JPG
collection_9196,NOART.jpg
collection_1218,CD18139.jpg
collection_1219,CD18138.jpg
collection_7182,CD12123.jpg
collection_1220,NOART.jpg
collection_7182,CD12123.jpg
collection_18315,CD20234.jpg
collection_14353,CD20124.jpg
collection_9199,CA00163.jpg
collection_9202,CD19476.jpg
collection_1221,CD15374_A.jpg
collection_1243,NOART.jpg
collection_9205,CA00148.jpg
collection_18215,AA08216.jpg
collection_7248,NOART.jpg
collection_11102,CD19755.jpg
collection_11887,CD14078.jpg
collection_11926,CD14356.jpg
collection_11943,NOART.jpg
collection_1222,NOART.jpg
collection_15852,VF00627.jpg
collection_1223,CD18702.jpg
collection_7327,VF00139.jpg
collection_10606,VF00205.jpg
collection_13349,VF00365.jpg
collection_18121,CD20220.jpg
collection_1224,NOART.jpg
collection_1225,NOART.jpg
collection_1472,CD14583.jpg
collection_9207,VF00191.jpg
collection_1226,NOART.jpg
collection_17334,CD20143.jpg
collection_1257,CD16869.jpg
collection_1227,CD14800.jpg
collection_7205,NOART.jpg
collection_17136,VF00740.jpg
collection_15262,VF00576.jpg
collection_15305,VF00578.jpg
collection_15327,VF00579.jpg
collection_15350,VF00580.jpg
collection_15372,VF00581.jpg
collection_1228,NOART.jpg
collection_1229,NOART.jpg
collection_1230,CD06891.jpg
collection_1231,CD14725.jpg
collection_1232,NOART.jpg
collection_1233,CD16447.jpg
collection_1234,NOART.jpg
collection_1235,CD00552.jpg
collection_1236,CD17544.jpg
collection_7209,RF00050.jpg
collection_17707,CA000804.JPG
collection_18477,CD20244.jpg
collection_16817,NOART.jpg
collection_16833,NOART.jpg
collection_1228,NOART.jpg
collection_18270,7I00631.JPG
collection_1232,NOART.jpg
collection_1230,CD06891.jpg
collection_1234,NOART.jpg
collection_9210,NOART.jpg
collection_12359,NOART.jpg
collection_1237,NOART.jpg
collection_1238,CD16285.jpg
collection_1239,CD12705.jpg
collection_9212,CA01495.jpg
collection_16449,VF00661.jpg
collection_16453,VF00664.jpg
collection_16457,VF00667.jpg
collection_16461,VF00679.jpg
collection_16465,VF00686.jpg
collection_16469,VF00705.jpg
collection_16473,VF00721.jpg
collection_9215,CA00108.jpg
collection_9217,CA00127.jpg
collection_11307,CD19766.jpg
collection_1240,CD17670.jpg
collection_9118,NOART.jpg
collection_1241,CD15674.jpg
collection_14939,NOART.jpg
collection_1242,CD19045_A.JPG
collection_7263,CD19467.jpg
collection_14951,NOART.jpg
collection_1244,CD10427.jpg
collection_1245,NOART.jpg
collection_1246,NOART.jpg
collection_17142,VF00741.jpg
collection_16848,NOART.jpg
collection_9220,NOART.jpg
collection_7297,VF00107.jpg
collection_12356,NOART.jpg
collection_12350,NOART.jpg
collection_7202,CD19337.jpg
collection_11343,VF00269.jpg
collection_16478,VF00659.jpg
collection_16486,VF00660.jpg
collection_16495,VF00709.jpg
collection_16501,VF00722.jpg
collection_1212,CD16245.jpg
collection_9223,NOART.jpg
collection_9226,CD19472.jpg
collection_9226,CD19472.jpg
collection_10513,NOART.jpg
collection_1247,CD15678.jpg
collection_9228,CA00983.jpg
collection_1248,CD19278.jpg
collection_7199,CD19296.jpg
collection_15409,CD20138.jpg
collection_18146,CD20222_A.jpg
collection_7268,VF00077.jpg
collection_7269,VF00078.jpg
collection_7270,VF00079.jpg
collection_7271,VF00080.jpg
collection_7318,VF00130.jpg
collection_9230,VF00179.jpg
collection_9232,VF00195.jpg
collection_10586,VF00201.jpg
collection_10591,VF00202.jpg
collection_10596,VF00203.jpg
collection_10601,VF00204.jpg
collection_10656,VF00225.jpg
collection_13819,VF00415.jpg
collection_14454,CD20134.jpg
collection_17311,VF00758.jpg
collection_18056,CD20212_A.jpg
collection_11506,VF00294.jpg
collection_1249,NOART.jpg
collection_1250,CD15344.jpg
collection_7240,CD19408.jpg
collection_1251,CD07970.jpg
collection_1252,NOART.jpg
collection_9234,CA00693.jpg
collection_10577,VF00200.jpg
collection_14314,VF00476.jpg
collection_1253,NOART.jpg
collection_7220,CD19379.jpg
collection_14958,NOART.jpg
collection_1254,CD14601.jpg
collection_1255,CD14585.jpg
collection_1256,CD13974.jpg
collection_1257,CD16869.jpg
collection_1258,CD17033.jpg
collection_1259,CD15945.jpg
collection_7258,CD19458.jpg
collection_12946,CD18427.jpg
collection_16514,VF00716.jpg
collection_1260,NOART.jpg
collection_1261,CD17166.jpg
collection_1262,NOART.jpg
collection_1263,NOART.jpg
collection_1264,CD17167.jpg
collection_1265,CD15778.jpg
collection_15616,VF00600.jpg
collection_16532,VF00712.jpg
collection_1266,CD18701.jpg
collection_1267,CD16243.jpg
collection_1268,CD13978.jpg
collection_7298,VF00108.jpg
collection_7181,NOART.jpg
collection_12336,NOART.jpg
collection_6919,C000036_A.JPG
collection_10890,VF00213.jpg
collection_1270,CD17546.jpg
collection_1271,CD12486.jpg
collection_1272,CD18374.jpg
collection_12677,VF00305.jpg
collection_12965,CD20047.jpg
collection_12989,VF00329.jpg
collection_7261,CD19465.jpg
collection_18492,NOART.jpg
collection_17152,NOART.jpg
collection_1273,CD16349.jpg
collection_7245,CD19413.jpg
collection_1274,NOART.jpg
collection_1275,NOART.jpg
collection_14784,VF00516.jpg
collection_17573,CD20161_A.JPG
collection_12411,NOART.jpg
collection_12431,NOART.jpg
collection_14969,NOART.jpg
collection_14971,NOART.jpg
collection_15038,NOART.jpg
collection_15040,NOART.jpg
collection_16549,VF00668.jpg
collection_16855,NOART.jpg
collection_16857,NOART.jpg
collection_15868,VF00630.jpg
collection_1276,NOART.jpg
collection_15446,CD20141.jpg
collection_1475,NOART.jpg
collection_1277,RF00056_A.jpg
collection_9237,CA00129.jpg
collection_1278,CD10483.jpg
collection_15874,VF00631.jpg
collection_16554,NOART.jpg
collection_1279,CD13938.jpg
collection_1280,CD20178_A.jpg
collection_14361,CD20125.jpg
collection_1281,CD12760.jpg
collection_1282,CD13186.jpg
collection_1283,CD18816.jpg
collection_7348,VF00175.jpg
collection_14755,VF00511.jpg
collection_1284,CD15119.jpg
collection_11564,NOART.jpg
collection_11736,CD11582.jpg
collection_11787,NOART.jpg
collection_18588,VF00774.jpg
collection_1285,CD15624.jpg
collection_18289,CD20231.jpg
collection_1286,CD14789.jpg
collection_17561,CD20160_A.JPG
collection_14019,VF00439.jpg
collection_17164,VF00743.jpg
collection_11350,VF00270.jpg
collection_11356,VF00271.jpg
collection_11361,VF00272.jpg
collection_11375,VF00273.jpg
collection_12896,VF00321.jpg
collection_12900,VF00322.jpg
collection_13559,VF00385.jpg
collection_15631,VF00601.jpg
collection_9242,CA00842.jpg
collection_12243,NOART.jpg
collection_14981,NOART.jpg
collection_9245,CA01494.jpg
collection_17790,CD20175_A.jpg
collection_6917,CD20187_A.jpg
collection_7299,VF00109.jpg
collection_15477,NOART.jpg
collection_9280,NOART.jpg
collection_9245,CA01494.jpg
collection_9248,CA01492.jpg
collection_1287,CD19301.jpg
collection_17731,CA01283_A.jpg
collection_11383,VF00274.jpg
collection_11455,VF00287.jpg
collection_11460,VF00288.jpg
collection_11016,CD19746.jpg
collection_16859,NOART.jpg
collection_13726,VF00404.jpg
collection_15637,VF00602.jpg
collection_9250,NOART.jpg
collection_18033,CD20210_A.jpg
collection_18022,CD20208_A.jpg
collection_13491,VF00380.jpg
collection_9254,NOART.jpg
collection_14118,VF00451.jpg
collection_9257,CA00091.jpg
collection_1288,CD13945.jpg
collection_17176,VF00744.jpg
collection_13004,VF00330.jpg
collection_13007,VF00331.jpg
collection_13009,NOART.jpg
collection_13013,VF00333.jpg
collection_13017,NOART.jpg
collection_1289,CD15675.jpg
collection_1290,NOART.jpg
collection_1291,CD13680.jpg
collection_1292,CD04475.jpg
collection_1293,CD13681.jpg
collection_1504,CD15915.jpg
collection_1294,CD14496.jpg
collection_1195,CD18375.jpg
collection_1295,CD14984.jpg
collection_17995,CD20205_A.jpg
collection_17454,CD20155_A.JPG
collection_14034,VF00440.jpg
collection_14041,VF00441.jpg
collection_13277,VF00353.jpg
collection_1296,CD15578.jpg
collection_1297,NOART.jpg
collection_15857,VF00628.jpg
collection_1298,CD17937.jpg
collection_17580,CD20162_A.JPG
collection_14990,NOART.jpg
collection_15657,VF00603.jpg
collection_7225,CD19383.jpg
collection_10512,VF00110.jpg
collection_14208,VF00462.jpg
collection_14224,VF00464.jpg
collection_1299,CD15087.jpg
collection_1300,NOART.jpg
collection_15879,NOART.jpg
collection_18067,CD20213_A.jpg
collection_1301,CD13742.jpg
collection_7189,CD14530.jpg
collection_7289,VF00098.jpg
collection_9259,NOART.jpg
collection_1302,CD16493.jpg
collection_1303,NOART.jpg
collection_13036,VF00337.jpg
collection_1304,CA00818_A.jpg
collection_7233,CD19393.jpg
collection_1305,CD07561.jpg
collection_16970,VF00726.jpg
collection_9262,CD19477.jpg
collection_1306,NOART.jpg
collection_1307,CD13609.jpg
collection_18230,CD20228_A.jpg
collection_1308,CD11579.jpg
collection_12406,VF00111.jpg
collection_1309,CD18748.jpg
collection_1311,CD16585.JPG
collection_16870,NOART.jpg
collection_14992,CD20179_A.jpg
collection_10734,VF00242.jpg
collection_10737,VF00243.jpg
collection_13329,VF00363.jpg
collection_18013,CD20207_A.jpg
collection_14766,VF00512.jpg
collection_7300,VF00112.jpg
collection_7301,VF00113.jpg
collection_7251,CD19419.jpg
collection_14426,CD20131.jpg
collection_14700,CA01526.jpg
collection_10645,VF00224.jpg
collection_1312,CD15771.jpg
collection_1313,NOART.jpg
collection_7330,VF00145.jpg
collection_1314,CD15780.jpg
collection_7342,NOART.jpg
collection_15032,NOART.jpg
collection_15034,NOART.jpg
collection_16560,VF00682.jpg
collection_17187,VF00745.jpg
collection_12692,VF00306.jpg
collection_1315,NOART.jpg
collection_1316,NOART.jpg
collection_7332,VF00147.jpg
collection_7333,VF00148.jpg
collection_17437,CD20153a.JPG
collection_13505,CD20123.jpg
collection_1317,CD05369.jpg
collection_1318,CD11718.jpg
collection_7197,CD18942_A.JPG
collection_17956,CD20202_A.jpg
collection_1319,CD01305.jpg
collection_1320,CD00323.jpg
collection_1321,NOART.jpg
collection_1322,CD11151.jpg
collection_1323,CD13686.jpg
collection_1324,CD20183_A.jpg
collection_1325,CD13033.jpg
collection_9264,CA01477.jpg
collection_10554,CA01524.jpg
collection_12194,NOART.jpg
collection_18437,CA01534A.jpg
collection_1325,CD13033.jpg
collection_17194,VF00746.jpg
collection_1326,CD18700.jpg
collection_1327,CD01866.jpg
collection_18187,CD20227_A.jpg
collection_1450,NOART.jpg
collection_16565,VF00658.jpg
collection_16572,VF00663.jpg
collection_16576,VF00665.jpg
collection_16584,VF00680.jpg
collection_16588,VF00684.jpg
collection_16592,VF00685.jpg
collection_16598,VF00694.jpg
collection_16611,VF00713.jpg
collection_16615,VF00720.jpg
collection_17196,VF00747.jpg
collection_18513,VF00764.jpg
collection_18561,VF00771.jpg
collection_16875,NOART.jpg
collection_15890,VF00633.jpg
collection_1328,CD17718.jpg
collection_1329,CD17717.jpg
collection_17949,CD20201_A.jpg
collection_1330,CD15445.jpg
collection_1331,CD15439.jpg
collection_17546,CD20159_A.JPG
collection_1332,CD17057.jpg
collection_11270,CD19762.jpg
collection_1333,CD05591.jpg
collection_1334,NOART.jpg
collection_1335,NOART.jpg
collection_1337,CD18027.jpg
collection_1338,CD18028.jpg
collection_9266,CA00830.jpg
collection_9268,CA01363.jpg
collection_9271,CA00951.jpg
collection_9273,CA01502.jpg
collection_1336,CD18580.jpg
collection_1337,CD18027.jpg
collection_1338,CD18028.jpg
collection_1339,RF00063_A.jpg
collection_7239,CD19407.jpg
collection_13991,VF00437.jpg
collection_14619,VF00491.jpg
collection_16619,NOART.jpg
collection_7218,CD19377.jpg
collection_7219,CD19378.jpg
collection_7222,CD19380.jpg
collection_9275,VF00198.jpg
collection_15386,VF00583.jpg
collection_18601,VF00775.jpg
collection_7262,CD19466.jpg
collection_16625,VF00703.jpg
collection_15895,VF00634.jpg
collection_13084,NOART.jpg
collection_13086,VF00344.jpg
collection_7303,VF00115.jpg
collection_13030,VF00336.jpg
collection_1341,CD03304.jpg
collection_1342,NOART.jpg
collection_10962,VF00220.jpg
collection_14304,VF00474.jpg
collection_11407,VF00275.jpg
collection_11411,NOART.jpg
collection_11414,VF00277.jpg
collection_1343,CD03547.jpg
collection_9277,CA00790.jpg
collection_7243,CD19411.jpg
collection_1344,CD14352.jpg
collection_1345,CD14058.jpg
collection_17208,VF00748.jpg
collection_13269,VF00351.jpg
collection_13273,VF00352.jpg
collection_16635,VF00707.jpg
collection_1346,CD17513.jpg
collection_11430,VF00278.jpg
collection_13609,VF00389.jpg
collection_13615,VF00390.jpg
collection_13621,VF00391.jpg
collection_10747,VF00244.jpg
collection_10755,VF00245.jpg
collection_10771,VF00246.jpg
collection_10784,VF00247.jpg
collection_10803,VF00248.jpg
collection_11210,VF00260.jpg
collection_13734,VF00405.jpg
collection_13750,VF00406.jpg
collection_13769,VF00407.jpg
collection_1347,CD17773.jpg
collection_1348,CD08569.jpg
collection_1349,CD11721.jpg
collection_1350,NOART.jpg
collection_1351,CD13199.jpg
collection_1352,NOART.jpg
collection_9280,NOART.jpg
collection_13529,VF00382.jpg
collection_1349,CD11721.jpg
collection_1353,CD15775_A.jpg
collection_1354,CD18030.jpg
collection_1355,CD18031.jpg
collection_1356,CD18029.jpg
collection_1357,CD13946.jpg
collection_16888,VF00768.jpg
collection_1358,CD11578.jpg
collection_15003,NOART.jpg
collection_15661,VF00604.jpg
collection_1359,CD11583.jpg
collection_17220,VF00749.jpg
collection_1360,CD14980.jpg
collection_7267,CD19471.jpg
collection_16899,NOART.jpg
collection_16910,NOART.jpg
collection_16922,NOART.jpg
collection_16933,NOART.jpg
collection_1361,CD03025.jpg
collection_16940,NOART.jpg
collection_15461,CD20142.jpg
collection_1362,CD16449.jpg
collection_1363,NOART.jpg
collection_7304,VF00116.jpg
collection_13023,VF00335.jpg
collection_17230,VF00750.jpg
collection_11488,VF00291.jpg
collection_11493,VF00292.jpg
collection_11522,VF00296.jpg
collection_11529,VF00297.jpg
collection_11536,VF00298.jpg
collection_11546,VF00300.jpg
collection_1364,NOART.jpg
collection_1365,NOART.jpg
collection_7201,CD19321.jpg
collection_1366,NOART.jpg
collection_1367,CD16687.jpg
collection_7186,CD13917.jpg
collection_18109,NOART.jpg
collection_17600,CD20164_A.JPG
collection_1368,NOART.jpg
collection_12751,CD20025.jpg
collection_12802,CD20030.jpg
collection_15901,VF00635.jpg
collection_13657,VF00396.jpg
collection_13776,VF00408.jpg
collection_10518,CA01511.jpg
collection_15910,VF00636.jpg
collection_7256,CD19456.jpg
collection_7196,CD17804.jpg
collection_17488,NOART.jpg
collection_14737,VF00508.jpg
collection_13626,VF00392.jpg
collection_15010,NOART.jpg
collection_15015,NOART.jpg
collection_1370,NOART.jpg
collection_10518,CA01511.jpg
collection_17721,CA01529_A.jpg
collection_16641,VF00662.jpg
collection_16646,VF00696.jpg
collection_13899,VF00423.jpg
collection_14125,NOART.jpg
collection_7226,NOART.jpg
collection_10821,VF00249.jpg
collection_12872,VF00318.jpg
collection_12877,VF00319.jpg
collection_13366,CD20122.jpg
collection_17917,CD20198_A.jpg
collection_1371,CD16952.jpg
collection_18352,CD20237.jpg
collection_18364,CD202238.jpg
collection_18364,CD202238.jpg
collection_9283,CD19482.jpg
collection_1372,CD18627.jpg
collection_7305,VF00117.jpg
collection_1373,CD12713.jpg
collection_1374,NOART.jpg
collection_1375,NOART.jpg
collection_1376,NOART.jpg
collection_10639,CD12430.jpg
collection_11743,NOART.jpg
collection_11435,VF00279.jpg
collection_14621,VF00492.jpg
collection_15667,VF00605.jpg
collection_14483,CD20136.jpg
collection_15431,CD20140.jpg
collection_15679,VF00606.jpg
collection_1378,NOART.jpg
collection_18162,CD20226_A.jpg
collection_10528,CA01518.jpg
collection_1380,CD09085.jpg
collection_1381,NOART.jpg
collection_14133,VF00454.jpg
collection_9286,NOART.jpg
collection_7191,NOART.jpg
collection_1382,CD16586.jpg
collection_9289,CA01246.jpg
collection_1383,NOART.jpg
collection_18174,AA00076.jpg
collection_14788,VF00517.jpg
collection_9292,CA01510.jpg
collection_10881,VF00212.jpg
collection_10923,VF00216.jpg
collection_10928,VF00217.jpg
collection_13333,VF00364.jpg
collection_7291,VF00101.jpg
collection_7306,VF00118.jpg
collection_7307,VF00119.jpg
collection_7308,VF00120.jpg
collection_7309,VF00121.jpg
collection_7311,VF00123.jpg
collection_7312,VF00124.jpg
collection_1384,NOART.jpg
collection_17268,VF00753.jpg
collection_1385,CD14008.jpg
collection_12701,VF00307.jpg
collection_11256,CD19761.jpg
collection_1386,CD04466.jpg
collection_1387,NOART.jpg
collection_12095,CD19376.jpg
collection_12433,VF00164.jpg
collection_12475,VF00167.jpg
collection_12489,VF00169.jpg
collection_12493,VF00170.jpg
collection_12504,VF00172.jpg
collection_1388,NOART.jpg
collection_11656,NOART.jpg
collection_11712,CD11577.jpg
collection_11725,CD11581.jpg
collection_11997,CD16863.jpg
collection_12008,CD16865.jpg
collection_12010,CD16866.jpg
collection_12012,NOART.jpg
collection_12018,CD16868.jpg
collection_12022,CD16871.jpg
collection_12033,CD16872.jpg
collection_12458,VF00166.jpg
collection_12495,VF00171.jpg
collection_13855,VF00418.jpg
collection_1389,CD13309.jpg
collection_1390,CD10884.jpg
collection_1391,CD10885.jpg
collection_1392,NOART.jpg
collection_17244,VF00751.jpg
collection_17388,CD20147_A.JPG
collection_1393,CD17682.jpg
collection_1394,CD17684.jpg
collection_1395,CD17683.jpg
collection_1396,CD13874.jpg
collection_12385,NOART.jpg
collection_1397,NOART.jpg
collection_14198,VF00461.jpg
collection_14347,VF00480.jpg
collection_13785,VF00409.jpg
collection_13193,CD20117.jpg
collection_1398,NOART.jpg
collection_17885,CD20186_a.jpg
collection_10983,VF00223.jpg
collection_15920,NOART.jpg
collection_14310,VF00475.jpg
collection_7343,VF00158.jpg
collection_18196,VF00759.jpg
collection_17255,VF00752.jpg
collection_17910,CD20194_A.jpg
collection_1399,NOART.jpg
collection_18044,CD20211_A.jpg
collection_13167,CD20102.jpg
collection_13355,CD20121.jpg
collection_13379,NOART.jpg
collection_13384,NOART.jpg
collection_13393,VF00369.jpg
collection_13414,VF00371.jpg
collection_13474,VF00379.jpg
collection_9295,CD19473.jpg
collection_9297,CD19474.jpg
collection_9299,VF00177.jpg
collection_9301,VF00178.jpg
collection_10989,CD19744.jpg
collection_17442,CD20154_AJPG.jpg
collection_1400,CD18447.jpg
collection_13405,VF00370.jpg
collection_1401,CD14349.jpg
collection_1402,CD04469.jpg
collection_1403,CD04460.jpg
collection_10831,VF00250.jpg
collection_10836,VF00251.jpg
collection_10840,VF00252.jpg
collection_10845,VF00253.jpg
collection_10914,VF00215.jpg
collection_1404,NOART.jpg
collection_1405,CD14350.jpg
collection_1406,CD02619.jpg
collection_1407,NOART.jpg
collection_1408,NOART.jpg
collection_1409,NOART.jpg
collection_1410,CD11441.jpg
collection_11082,CD19753.jpg
collection_11243,VF00264.jpg
collection_18565,VF00772.jpg
collection_7257,CD19457.jpg
collection_7323,VF00135.jpg
collection_1411,NOART.jpg
collection_1412,NOART.jpg
collection_7344,VF00159.jpg
collection_7345,VF00160.jpg
collection_13825,VF00416.jpg
collection_14385,CD20127.jpg
collection_7314,VF00125.jpg
collection_10878,VF00211.jpg
collection_13647,VF00395.jpg
collection_9304,CA01500.jpg
collection_14629,VF00493.jpg
collection_7200,CD19320.jpg
collection_1413,CD17909.jpg
collection_12076,CD17958.jpg
collection_1414,CD13550.jpg
collection_14522,VF00484.jpg
collection_1415,CD19277_A.jpg
collection_1416,NOART.jpg
collection_1417,NOART.jpg
collection_1418,CD15783.jpg
collection_1419,NOART.jpg
collection_1420,NOART.jpg
collection_18498,NOART.jpg
collection_13792,VF00410.jpg
collection_1102,CD17726.jpg
collection_1103,CD18886.jpg
collection_7322,VF00134.jpg
collection_10617,VF00207.jpg
collection_1421,CD15508.jpg
collection_1422,CD12304_A.jpg
collection_1423,NOART.jpg
collection_18373,CD20239.jpg
collection_11296,CD19764.jpg
collection_11300,CD19765.jpg
collection_1424,NOART.jpg
collection_1425,CD18048.jpg
collection_10661,VF00226.jpg
collection_10669,VF00227.jpg
collection_1426,CD18579.jpg
collection_1427,CD17752.jpg
collection_7228,CD19386.jpg
collection_7231,CD19390.jpg
collection_7235,CD19399.jpg
collection_13873,VF00420.jpg
collection_1428,CD14028.jpg
collection_1429,CD03486.jpg
collection_1430,NOART.jpg
collection_12764,CD20026.jpg
collection_1431,CD10473.jpg
collection_1432,CD01192.jpg
collection_1433,CD05544.jpg
collection_14092,VF00448.jpg
collection_15381,VF00582.jpg
collection_9307,CD19479.jpg
collection_7315,VF00126.jpg
collection_15686,VF00607.jpg
collection_15696,VF00608.jpg
collection_15726,VF00612.jpg
collection_1434,CD18682.jpg
collection_10943,VF00218.jpg
collection_10852,VF00254.jpg
collection_1435,NOART.jpg
collection_1436,CD15782.jpg
collection_7242,CD19410.jpg
collection_9309,CA00831.jpg
collection_1437,NOART.jpg
collection_1438,CD15502.jpg
collection_6917,CD20187_A.jpg
collection_7184,CD13449.jpg
collection_7185,CD13450.jpg
collection_7188,CD14341.jpg
collection_14406,CD20129.jpg
collection_9312,NOART.jpg
collection_15470,NOART.jpg
collection_11501,VF00293.jpg
collection_11540,NOART.jpg
collection_13578,VF00386.jpg
collection_1439,CD07770.jpg
collection_1440,CD19275.jpg
collection_1441,CD18064.jpg
collection_1442,NOART.jpg
collection_1443,NOART.jpg
collection_9315,CA00302.jpg
collection_1444,CD16076.jpg
collection_7329,VF00144.jpg
collection_1445,CD18802jpg.jpg
collection_11441,VF00280.jpg
collection_11681,NOART.jpg
collection_11970,CD16683.jpg
collection_11983,CD16684.jpg
collection_12043,CD17809.jpg
collection_12059,CD17810.jpg
collection_12733,VF00314.jpg
collection_12636,CD20010.jpg
collection_15711,VF00609.jpg
collection_18517,VF00765.jpg
collection_18529,VF00766.jpg
collection_7324,VF00136.jpg
collection_11446,NOART.jpg
collection_11482,VF00290.jpg
collection_13980,NOART.jpg
collection_13986,NOART.jpg
collection_1446,CD16244.jpg
collection_7216,NOART.jpg
collection_14830,VF00522.jpg
collection_1447,CD14590.jpg
collection_1448,NOART.jpg
collection_13211,CD20118.jpg
collection_13233,CD20119.jpg
collection_13241,CD20120.jpg
collection_17662,CD20169_A.JPG
collection_17669,CD20169_A.JPG
collection_7326,VF00138.jpg
collection_1449,CD06198.jpg
collection_9317,VF00181.jpg
collection_9319,VF00182.jpg
collection_9321,VF00183.jpg
collection_9323,VF00184.jpg
collection_9325,VF00185.jpg
collection_18276,7I6033.jpg
collection_18279,7I00634.jpg
collection_18282,7I00635.jpg
collection_1310,NOART.jpg
collection_7237,CD19404.jpg
collection_7193,NOART.jpg
collection_11042,CD19749.jpg
collection_7325,VF00137.jpg
collection_1451,NOART.jpg
collection_1452,CD10075.jpg
collection_1453,CD14760.jpg
collection_1454,CD15914.jpg
collection_1455,CD10268.jpg
collection_7347,VF00174.jpg
collection_1456,CD16864.jpg
collection_1457,CD18828.jpg
collection_14811,VF00521.jpg
collection_11248,CA01525.jpg
collection_18098,NOART.jpg
collection_9328,CA00103.jpg
collection_9330,NOART.jpg
collection_9332,CA00264.jpg
collection_9334,CA00265.jpg
collection_9336,CA00266.jpg
collection_9338,CA00300.jpg
collection_9340,CA01103.jpg
collection_17820,CA1530_A.JPG
collection_1458,CD02818.jpg
collection_1459,CD18786_A.jpg
collection_10273,NOART.jpg
collection_1351,CD13199.jpg
collection_1460,CD08909.jpg
collection_1461,NOART.jpg
collection_18154,CD20225_A.jpg
collection_1462,CD15910.jpg
collection_1379,CD16075.jpg
collection_9343,CA00823.jpg
collection_1463,RF00079.jpg
collection_1464,CD11734_A.JPG
collection_1465,NOART.jpg
collection_1466,CD13940.jpg
collection_1467,RF00080_A.jpg
collection_7260,CD19461.jpg
collection_17525,CD20158_A.JPG
collection_18575,VF00773.jpg
collection_1468,CD14345.jpg
collection_1469,CD16078.jpg
collection_1470,CD17567.jpg
collection_12961,NOART.jpg
collection_1471,CD16966.jpg
collection_1472,CD14583.jpg
collection_10641,CD16247.jpg
collection_1473,CD14359.jpg
collection_1474,CD15594.jpg
collection_16124,CA00827.jpg
collection_16138,CD15786.jpg
collection_1477,CD15777.jpg
collection_1478,CD15299.jpg
collection_1479,CD15908.jpg
collection_1480,CD15879.jpg
collection_1481,CD01797.jpg
collection_1482,NOART.jpg
collection_1483,CD17724.jpg
collection_1484,CD17723_A.jpg
collection_10511,NOART.jpg
collection_14719,VF00504.jpg
collection_14750,VF00510.jpg
collection_14791,VF00518.jpg
collection_14796,VF00519.jpg
collection_14843,VF00525.jpg
collection_14847,VF00526.jpg
collection_1485,CD15587.jpg
collection_15925,NOART.jpg
collection_15930,NOART.jpg
collection_17279,VF00754.jpg
collection_1490,NOART.jpg
collection_1486,CD18661.jpg
collection_1487,CD17817.jpg
collection_1489,NOART.jpg
collection_1491,CD01724.jpg
collection_15943,VF00640.jpg
collection_16652,VF00719.jpg
collection_14372,CD20126.jpg
collection_10968,VF00221.jpg
collection_17643,CD20167_A.JPG
collection_12098,CD19389.jpg
collection_7244,CD19412.jpg
collection_7349,VF00176.jpg
collection_1492,CD04865.jpg
collection_1493,CD10757.jpg
collection_1494,NOART.jpg
collection_9351,CA00936.jpg
collection_7250,CD19418.jpg
collection_7331,VF00146.jpg
collection_14871,NOART.jpg
collection_15020,NOART.jpg
collection_15036,NOART.jpg
collection_14333,VF00478.jpg
collection_17401,CD20148_A.JPG
collection_1496,CD13172.jpg
collection_1497,CD17074.jpg
collection_1498,CD15110.jpg
collection_1499,CD19279.jpg
collection_9353,NOART.jpg
collection_18336,CD20236.jpg
collection_18336,CD20236.jpg
collection_1500,NOART.jpg
collection_1501,CD00597.jpg
collection_17742,CA01507_A.jpg
collection_17296,NOART.jpg
collection_12309,NOART.jpg
collection_16154,LIVENLOCALECHO.jpg
collection_16178,YOA16.jpg
collection_16943,storymachine.jpg
collection_1502,CD00553.jpg
collection_17838,CD20182_A.jpg
collection_14414,CD20130.jpg
collection_11210,VF00260.jpg
collection_13769,VF00407.jpg
collection_11312,VF00265.jpg
collection_1503,NOART.jpg
collection_1504,CD15915.jpg
collection_17856,CA01530_A.jpg
collection_14051,VF00443.jpg
collection_15948,VF00641.jpg
collection_9356,CA01158.jpg
collection_1505,CD08583.jpg
collection_1506,CD00565.jpg
collection_15960,VF00642.jpg
collection_1127,NOART.jpg
collection_1507,CD10000.jpg
collection_1508,NOART.jpg
collection_1510,NOART.jpg
collection_1512,CD13758.jpg
collection_1513,NOART.jpg
collection_1514,CD17568.jpg
collection_1515,NOART.jpg
collection_1516,CD15779.jpg
collection_1517,CD11580.jpg
collection_1518,CD17601.jpg
collection_1519,CD15912.jpg
collection_1520,NOART.jpg
collection_1521,CD17775.jpg
collection_6917,CD20187_A.jpg
collection_6920,CD04467.jpg
collection_7184,CD13449.jpg
collection_7185,CD13450.jpg
collection_7188,CD14341.jpg
collection_7210,NOART.jpg
collection_7252,CD19420.jpg
collection_9122,CA00860.jpg
collection_9239,CA01204.jpg
collection_9348,CA01127.jpg
collection_9364,CA01098.jpg
collection_11697,CD06293.jpg
collection_11745,CD12101.jpg
collection_11771,NOART.jpg
collection_12361,NOART.jpg
collection_12365,NOART.jpg
collection_12439,VF00165.jpg
collection_12604,CD20000.jpg
collection_16752,NOART.jpg
collection_17291,VF00755.jpg
collection_14442,CD20133.jpg
collection_16663,VF00691.jpg
collection_16666,VF00704.jpg
collection_10873,VF00210.jpg
collection_9359,CA01512.jpg
collection_15715,VF00610.jpg
collection_17374,CD20146_a.jpg
collection_9362,CA00132.jpg
collection_16672,VF00677.jpg
collection_13125,VF00348.jpg
collection_13137,VF00349.jpg
collection_13143,VF00350.jpg
collection_16681,VF00687.jpg
collection_16685,VF00701.jpg
collection_1522,CD16605.jpg
collection_1523,CD01969.jpg
collection_1524,CD13104.jpg
collection_1525,CD17055.jpg
collection_18534,VF00769.jpg
collection_1524,CD13104.jpg
collection_17868,CD20184_A.jpg
collection_14064,VF00445.jpg
collection_14098,VF00449.jpg
collection_14108,VF00450.jpg
collection_14139,VF00455.jpg
collection_14159,VF00457.jpg
collection_14169,VF00458.jpg
collection_14187,VF00460.jpg
collection_14218,VF00463.jpg
collection_14232,VF00465.jpg
collection_14244,VF00466.jpg
collection_14255,VF00467.jpg
collection_14260,VF00468.jpg
collection_14268,VF00470.jpg
collection_14277,VF00471.jpg
collection_14563,VF00488.jpg
collection_14635,VF00494.jpg
collection_14646,VF00495.jpg
collection_14659,VF00496.jpg
collection_14669,VF00497.jpg
collection_14679,VF00498.jpg
collection_14689,VF00499.jpg
collection_14695,VF00500.jpg
collection_15987,VF00643.jpg
collection_15993,VF00644.jpg
collection_16001,VF00645.jpg
collection_16007,VF00646.jpg
collection_16015,VF00647.jpg
collection_16023,VF00648.jpg
collection_16688,VF00675.jpg
collection_16694,VF00676.jpg
collection_16705,VF00699.jpg
collection_16715,VF00702.jpg
collection_16725,VF00724.jpg
collection_11054,CD19750.jpg
collection_11061,CD19751.jpg
collection_13438,VF00374.jpg
collection_13802,VF00412.jpg
collection_13809,VF00413.jpg
collection_15863,VF00629.jpg
collection_16119,VF00657.jpg
collection_9367,NOART.jpg
collection_12106,CD19395.jpg
collection_12130,CD19396.jpg
collection_12145,CD19397.jpg
collection_12169,CD19460.jpg
collection_1526,CD17327.jpg
collection_1527,NOART.jpg
collection_9370,CD19480.jpg
collection_7194,CD17720.jpg
collection_14488,VF00481.jpg
collection_14497,VF00482.jpg
collection_14509,VF00483.jpg
collection_14537,VF00485.jpg
collection_14548,VF00486.jpg
collection_14556,VF00487.jpg
collection_16037,VF00649.jpg
collection_16736,VF00725.jpg
collection_1528,CD15589.jpg
collection_9373,NOART.jpg
collection_1529,NOART.jpg
collection_1530,CD16446.jpg
collection_1531,NOART.jpg
collection_1532,NOART.jpg
collection_1533,NOART.jpg
collection_9375,NOART.jpg
collection_1534,NOART.jpg
collection_7310,VF00122.jpg
collection_14087,NOART.jpg
collection_15718,VF00611.jpg
collection_9378,NOART.jpg
collection_9380,NOART.jpg
collection_9383,NOART.jpg
collection_7346,VF00161.jpg
collection_17298,NOART.jpg
collection_18285,7I00636.jpg
collection_18287,7I00637.jpg
collection_16043,VF00650.jpg
collection_16048,VF00651.jpg
collection_16054,VF00652.jpg
collection_15023,NOART.jpg
collection_10901,VF00214.jpg
collection_16060,VF00653.jpg
collection_16072,VF00654.jpg
collection_16086,VF00655.jpg
collection_16098,VF00656.jpg
collection_1535,CD05055.jpg
collection_12394,NOART.jpg
collection_17301,NOART.jpg
